program:
	assignment:
		=:
			list1
			collection:
				
	assignment:
		=:
			list2
			collection:
				cortege:
					INTEGER_NUMBER:
						1
					INTEGER_NUMBER:
						2
					INTEGER_NUMBER:
						3
					collection:
						cortege:
							INTEGER_NUMBER:
								4
							INTEGER_NUMBER:
								5
	assignment:
		=:
			list3
			add:
				+:
					IDENTIFIER:
						list2
					collection:
						cortege:
							INTEGER_NUMBER:
								6
							INTEGER_NUMBER:
								7